[gd_resource type="Font" load_steps=2 format=3 uid="uid://dfk78efl0un2w"]

[ext_resource type="FontData" uid="uid://durcsvsqgte2s" path="res://ui/theme/font/TitilliumWeb-Regular.ttf" id="1"]

[resource]
data/0 = ExtResource( "1" )
