; Engine configuration file.
; It's best edited using the editor UI and not directly,
; since the parameters that go here are not all obvious.
;
; Format:
;   [section] ; section goes between []
;   param=value ; assign values to parameters

config_version=5

_global_script_classes=[{
"base": "VBoxContainer",
"class": &"SidebarContents",
"language": &"GDScript",
"path": "res://ui/session_view/sidebar/SidebarContentsBase.gd"
}]
_global_script_class_icons={
"SidebarContents": ""
}

[application]

config/name="OpenVTT"
run/main_scene="res://Main.tscn"
run/low_processor_mode=true
config/icon="res://icon.png"
config/features=PackedStringArray("4.0")

[autoload]

Settings="*res://settings/DefaultSettings.tscn"
Network="*res://network/Network.tscn"

[display]

window/size/viewport_width=1280
window/size/viewport_height=720
window/size/width=1280
window/size/height=720

[gui]

theme/custom="res://ui/theme/Theme.tres"

[physics]

common/enable_pause_aware_picking=true

[rendering]

quality/driver/driver_name="GLES2"
vram_compression/import_etc=true
vram_compression/import_etc2=false
environment/default_clear_color=Color(0.172549, 0.172549, 0.172549, 1)
environment/default_environment="res://default_env.tres"
