[gd_scene load_steps=6 format=3 uid="uid://dipek8pdw3mu8"]

[ext_resource type="StyleBox" uid="uid://bsvlop10an17w" path="res://ui/theme/AlertPanel.tres" id="1_2io3r"]
[ext_resource type="Script" path="res://ui/common/Alert.gd" id="2_bmq3s"]

[sub_resource type="Animation" id="Animation_xbuwp"]
length = 0.001
tracks/0/type = "value"
tracks/0/imported = false
tracks/0/enabled = true
tracks/0/path = NodePath(".:modulate")
tracks/0/interp = 1
tracks/0/loop_wrap = true
tracks/0/keys = {
"times": PackedFloat32Array(0),
"transitions": PackedFloat32Array(1),
"update": 0,
"values": [Color(1, 1, 1, 1)]
}

[sub_resource type="Animation" id="Animation_lavq3"]
resource_name = "fade_in"
length = 5.0
tracks/0/type = "method"
tracks/0/imported = false
tracks/0/enabled = true
tracks/0/path = NodePath("AnimationPlayer")
tracks/0/interp = 1
tracks/0/loop_wrap = true
tracks/0/keys = {
"times": PackedFloat32Array(5),
"transitions": PackedFloat32Array(1),
"values": [{
"args": ["fade_out", -1, 1.0, false],
"method": &"play"
}]
}
tracks/1/type = "value"
tracks/1/imported = false
tracks/1/enabled = true
tracks/1/path = NodePath(".:modulate")
tracks/1/interp = 1
tracks/1/loop_wrap = true
tracks/1/keys = {
"times": PackedFloat32Array(0, 0.2),
"transitions": PackedFloat32Array(1, 1),
"update": 0,
"values": [Color(1, 1, 1, 0), Color(1, 1, 1, 1)]
}

[sub_resource type="Animation" id="Animation_rqhqv"]
resource_name = "fade_out"
length = 0.2
tracks/0/type = "value"
tracks/0/imported = false
tracks/0/enabled = true
tracks/0/path = NodePath(".:modulate")
tracks/0/interp = 1
tracks/0/loop_wrap = true
tracks/0/keys = {
"times": PackedFloat32Array(0, 0.2),
"transitions": PackedFloat32Array(1, 1),
"update": 0,
"values": [Color(1, 1, 1, 1), Color(1, 1, 1, 0)]
}
tracks/1/type = "method"
tracks/1/imported = false
tracks/1/enabled = true
tracks/1/path = NodePath(".")
tracks/1/interp = 1
tracks/1/loop_wrap = true
tracks/1/keys = {
"times": PackedFloat32Array(0.2),
"transitions": PackedFloat32Array(1),
"values": [{
"args": [],
"method": &"queue_free"
}]
}

[node name="Alert" type="PanelContainer"]
minimum_size = Vector2(500, 0)
offset_right = 32.0
offset_bottom = 32.0
size_flags_horizontal = 4
theme_override_styles/panel = ExtResource( "1_2io3r" )
script = ExtResource( "2_bmq3s" )

[node name="Label" type="Label" parent="."]
offset_left = 16.0
offset_top = 16.0
offset_right = 484.0
offset_bottom = 42.0
horizontal_alignment = 1

[node name="AnimationPlayer" type="AnimationPlayer" parent="."]
autoplay = "fade_in"
anims/RESET = SubResource( "Animation_xbuwp" )
anims/fade_in = SubResource( "Animation_lavq3" )
anims/fade_out = SubResource( "Animation_rqhqv" )

[connection signal="gui_input" from="." to="." method="_on_alert_gui_input"]
