[gd_resource type="StyleBoxFlat" format=3 uid="uid://bsvlop10an17w"]

[resource]
content_margin_left = 16.0
content_margin_right = 16.0
content_margin_top = 16.0
content_margin_bottom = 16.0
bg_color = Color(0.596078, 0.0470588, 0.0470588, 0.835294)
corner_radius_top_left = 8
corner_radius_top_right = 8
corner_radius_bottom_right = 8
corner_radius_bottom_left = 8
